%YAML 1.1
%TAG !u! tag:unity3d.com,2011:
--- !u!114 &11400000
MonoBehaviour:
  m_ObjectHideFlags: 0
  m_CorrespondingSourceObject: {fileID: 0}
  m_PrefabInstance: {fileID: 0}
  m_PrefabAsset: {fileID: 0}
  m_GameObject: {fileID: 0}
  m_Enabled: 1
  m_EditorHideFlags: 0
  m_Script: {fileID: 11500000, guid: bba80cf92e1732d419247c4ad9b4c9d1, type: 3}
  m_Name: Moose
  m_EditorClassIdentifier: 
  nombre: Moose
  puntos: 200
  vida: 500
  "da\xF1o": 150
  velocidad: 0.2
  Anim1: moose_run
  Anim2: moose_attack
