%YAML 1.1
%TAG !u! tag:unity3d.com,2011:
--- !u!74 &7400000
AnimationClip:
  m_ObjectHideFlags: 0
  m_CorrespondingSourceObject: {fileID: 0}
  m_PrefabInstance: {fileID: 0}
  m_PrefabAsset: {fileID: 0}
  m_Name: bow_run
  serializedVersion: 6
  m_Legacy: 0
  m_Compressed: 0
  m_UseHighQualityCurve: 1
  m_RotationCurves: []
  m_CompressedRotationCurves: []
  m_EulerCurves: []
  m_PositionCurves: []
  m_ScaleCurves: []
  m_FloatCurves: []
  m_PPtrCurves:
  - curve:
    - time: 0
      value: {fileID: 21300000, guid: 802f62ce207a0d3459e66fec9afa696f, type: 3}
    - time: 0.16666667
      value: {fileID: 21300000, guid: 90e1fa3f54ac02446af80f1db9c713be, type: 3}
    - time: 0.33333334
      value: {fileID: 21300000, guid: d9b71cf8b8ae9a048be98b2d15c50696, type: 3}
    - time: 0.5
      value: {fileID: 21300000, guid: 8b1af1d69d6dd0441aeec625e97521c3, type: 3}
    - time: 0.6666667
      value: {fileID: 21300000, guid: bbf5306066a11dd49af6217514a55599, type: 3}
    - time: 0.8333333
      value: {fileID: 21300000, guid: 6922c3c81a7dfb049a9988b8dacf0b10, type: 3}
    - time: 1
      value: {fileID: 21300000, guid: 54b163df184772a4eaa14308312a6989, type: 3}
    - time: 1.1666666
      value: {fileID: 21300000, guid: a37115597e8386b4abd5fcb53fb5d816, type: 3}
    - time: 1.3166667
      value: {fileID: 21300000, guid: 802f62ce207a0d3459e66fec9afa696f, type: 3}
    attribute: m_Sprite
    path: 
    classID: 212
    script: {fileID: 0}
  m_SampleRate: 60
  m_WrapMode: 0
  m_Bounds:
    m_Center: {x: 0, y: 0, z: 0}
    m_Extent: {x: 0, y: 0, z: 0}
  m_ClipBindingConstant:
    genericBindings:
    - serializedVersion: 2
      path: 0
      attribute: 0
      script: {fileID: 0}
      typeID: 212
      customType: 23
      isPPtrCurve: 1
    pptrCurveMapping:
    - {fileID: 21300000, guid: 802f62ce207a0d3459e66fec9afa696f, type: 3}
    - {fileID: 21300000, guid: 90e1fa3f54ac02446af80f1db9c713be, type: 3}
    - {fileID: 21300000, guid: d9b71cf8b8ae9a048be98b2d15c50696, type: 3}
    - {fileID: 21300000, guid: 8b1af1d69d6dd0441aeec625e97521c3, type: 3}
    - {fileID: 21300000, guid: bbf5306066a11dd49af6217514a55599, type: 3}
    - {fileID: 21300000, guid: 6922c3c81a7dfb049a9988b8dacf0b10, type: 3}
    - {fileID: 21300000, guid: 54b163df184772a4eaa14308312a6989, type: 3}
    - {fileID: 21300000, guid: a37115597e8386b4abd5fcb53fb5d816, type: 3}
    - {fileID: 21300000, guid: 802f62ce207a0d3459e66fec9afa696f, type: 3}
  m_AnimationClipSettings:
    serializedVersion: 2
    m_AdditiveReferencePoseClip: {fileID: 0}
    m_AdditiveReferencePoseTime: 0
    m_StartTime: 0
    m_StopTime: 1.3333334
    m_OrientationOffsetY: 0
    m_Level: 0
    m_CycleOffset: 0
    m_HasAdditiveReferencePose: 0
    m_LoopTime: 1
    m_LoopBlend: 0
    m_LoopBlendOrientation: 0
    m_LoopBlendPositionY: 0
    m_LoopBlendPositionXZ: 0
    m_KeepOriginalOrientation: 0
    m_KeepOriginalPositionY: 1
    m_KeepOriginalPositionXZ: 0
    m_HeightFromFeet: 0
    m_Mirror: 0
  m_EditorCurves: []
  m_EulerEditorCurves: []
  m_HasGenericRootTransform: 0
  m_HasMotionFloatCurves: 0
  m_Events: []
