%YAML 1.1
%TAG !u! tag:unity3d.com,2011:
--- !u!74 &7400000
AnimationClip:
  m_ObjectHideFlags: 0
  m_CorrespondingSourceObject: {fileID: 0}
  m_PrefabInstance: {fileID: 0}
  m_PrefabAsset: {fileID: 0}
  m_Name: bow_attack
  serializedVersion: 6
  m_Legacy: 0
  m_Compressed: 0
  m_UseHighQualityCurve: 1
  m_RotationCurves: []
  m_CompressedRotationCurves: []
  m_EulerCurves: []
  m_PositionCurves: []
  m_ScaleCurves: []
  m_FloatCurves: []
  m_PPtrCurves:
  - curve:
    - time: 0
      value: {fileID: 21300000, guid: 9122f157b454fd64a856aff7b1c916e6, type: 3}
    - time: 0.16666667
      value: {fileID: 21300000, guid: 836497065d39f1046822ce56dd47f15f, type: 3}
    - time: 0.31666666
      value: {fileID: 21300000, guid: c07e4160a498cf242ae1abe49d89a972, type: 3}
    - time: 0.45
      value: {fileID: 21300000, guid: 3a6baceda32b11248a8bc54c320f7893, type: 3}
    - time: 0.53333336
      value: {fileID: 21300000, guid: c065baabd8730924e8c4364fe8bc2074, type: 3}
    - time: 0.6666667
      value: {fileID: 21300000, guid: 3a6baceda32b11248a8bc54c320f7893, type: 3}
    - time: 0.75
      value: {fileID: 21300000, guid: c065baabd8730924e8c4364fe8bc2074, type: 3}
    - time: 0.8333333
      value: {fileID: 21300000, guid: 3a6baceda32b11248a8bc54c320f7893, type: 3}
    - time: 0.9166667
      value: {fileID: 21300000, guid: c065baabd8730924e8c4364fe8bc2074, type: 3}
    - time: 1
      value: {fileID: 21300000, guid: cefc867340729104a9fa36c8a7f19b4f, type: 3}
    - time: 1.0833334
      value: {fileID: 21300000, guid: c23e95fc94637834494f6a21a606b168, type: 3}
    - time: 1.1666666
      value: {fileID: 21300000, guid: 8183783f3b7cadf4ba425c960d5fc288, type: 3}
    attribute: m_Sprite
    path: 
    classID: 212
    script: {fileID: 0}
  m_SampleRate: 60
  m_WrapMode: 0
  m_Bounds:
    m_Center: {x: 0, y: 0, z: 0}
    m_Extent: {x: 0, y: 0, z: 0}
  m_ClipBindingConstant:
    genericBindings:
    - serializedVersion: 2
      path: 0
      attribute: 0
      script: {fileID: 0}
      typeID: 212
      customType: 23
      isPPtrCurve: 1
    pptrCurveMapping:
    - {fileID: 21300000, guid: 9122f157b454fd64a856aff7b1c916e6, type: 3}
    - {fileID: 21300000, guid: 836497065d39f1046822ce56dd47f15f, type: 3}
    - {fileID: 21300000, guid: c07e4160a498cf242ae1abe49d89a972, type: 3}
    - {fileID: 21300000, guid: 3a6baceda32b11248a8bc54c320f7893, type: 3}
    - {fileID: 21300000, guid: c065baabd8730924e8c4364fe8bc2074, type: 3}
    - {fileID: 21300000, guid: 3a6baceda32b11248a8bc54c320f7893, type: 3}
    - {fileID: 21300000, guid: c065baabd8730924e8c4364fe8bc2074, type: 3}
    - {fileID: 21300000, guid: 3a6baceda32b11248a8bc54c320f7893, type: 3}
    - {fileID: 21300000, guid: c065baabd8730924e8c4364fe8bc2074, type: 3}
    - {fileID: 21300000, guid: cefc867340729104a9fa36c8a7f19b4f, type: 3}
    - {fileID: 21300000, guid: c23e95fc94637834494f6a21a606b168, type: 3}
    - {fileID: 21300000, guid: 8183783f3b7cadf4ba425c960d5fc288, type: 3}
  m_AnimationClipSettings:
    serializedVersion: 2
    m_AdditiveReferencePoseClip: {fileID: 0}
    m_AdditiveReferencePoseTime: 0
    m_StartTime: 0
    m_StopTime: 1.1833333
    m_OrientationOffsetY: 0
    m_Level: 0
    m_CycleOffset: 0
    m_HasAdditiveReferencePose: 0
    m_LoopTime: 1
    m_LoopBlend: 0
    m_LoopBlendOrientation: 0
    m_LoopBlendPositionY: 0
    m_LoopBlendPositionXZ: 0
    m_KeepOriginalOrientation: 0
    m_KeepOriginalPositionY: 1
    m_KeepOriginalPositionXZ: 0
    m_HeightFromFeet: 0
    m_Mirror: 0
  m_EditorCurves: []
  m_EulerEditorCurves: []
  m_HasGenericRootTransform: 0
  m_HasMotionFloatCurves: 0
  m_Events:
  - time: 1.0833334
    functionName: Shoot
    data: 
    objectReferenceParameter: {fileID: 0}
    floatParameter: 0
    intParameter: 0
    messageOptions: 0
